{
  "project_info": {
    "project_number": "1019039275630",
    "firebase_url": "https://foxy-2d-gioco-ca5a1-default-rtdb.firebaseio.com",
    "project_id": "foxy-2d-gioco-ca5a1",
    "storage_bucket": "foxy-2d-gioco-ca5a1.appspot.com"
  },
  "client": [
    {
      "client_info": {
        "mobilesdk_app_id": "1:1019039275630:android:f3ac334569946ed6f5a47f",
        "android_client_info": {
          "package_name": "it.mc.foxy"
        }
      },
      "oauth_client": [
        {
          "client_id": "1019039275630-qkt0pcqahp5i1ufjbq53782rrjuf73ca.apps.googleusercontent.com",
          "client_type": 3
        }
      ],
      "api_key": [
        {
          "current_key": "AIzaSyB0AoF1TssNJ8B3bRMkYZOucplkmQwJ8U4"
        }
      ],
      "services": {
        "appinvite_service": {
          "other_platform_oauth_client": [
            {
              "client_id": "1019039275630-qkt0pcqahp5i1ufjbq53782rrjuf73ca.apps.googleusercontent.com",
              "client_type": 3
            },
            {
              "client_id": "1019039275630-urt85rj9aioqs2s852ndsgao6psookj4.apps.googleusercontent.com",
              "client_type": 2,
              "ios_info": {
                "bundle_id": "it.mc.foxy.ios"
              }
            }
          ]
        }
      }
    }
  ],
  "configuration_version": "1"
}