%YAML 1.1
%TAG !u! tag:unity3d.com,2011:
--- !u!114 &1
MonoBehaviour:
  m_ObjectHideFlags: 61
  m_CorrespondingSourceObject: {fileID: 0}
  m_PrefabInstance: {fileID: 0}
  m_PrefabAsset: {fileID: 0}
  m_GameObject: {fileID: 0}
  m_Enabled: 1
  m_EditorHideFlags: 0
  m_Script: {fileID: 0}
  m_Name: 
  m_EditorClassIdentifier: UnityEditor:UnityEditor.PackageManager.UI:PackageManagerProjectSettings
  m_ScopedRegistriesSettingsExpanded: 1
  oneTimeWarningShown: 0
  m_Registries:
  - m_Id: main
    m_Name: 
    m_Url: https://packages.unity.com
    m_Scopes: []
    m_IsDefault: 1
  - m_Id: scoped:Goggle package registry
    m_Name: Goggle package registry
    m_Url: https://unityregistry-pa.googleapis.com
    m_Scopes:
    - com.google
    m_IsDefault: 0
  m_UserSelectedRegistryName: 
  m_UserAddingNewScopedRegistry: 0
  m_RegistryInfoDraft:
    m_ErrorMessage: 
    m_Original:
      m_Id: scoped:Goggle package registry
      m_Name: Goggle package registry
      m_Url: https://unityregistry-pa.googleapis.com
      m_Scopes:
      - com.google
      m_IsDefault: 0
    m_Modified: 0
    m_Name: Goggle package registry
    m_Url: https://unityregistry-pa.googleapis.com
    m_Scopes:
    - com.google
    m_SelectedScopeIndex: 0
