%YAML 1.1
%TAG !u! tag:unity3d.com,2011:
--- !u!78 &1
TagManager:
  serializedVersion: 2
  tags:
  - terreno
  - player
  - joystick
  - eagle_ball
  - eagle
  - piranha_plant_ball
  - piranha_plant
  - key
  - explosion
  - vita
  - bomba
  - level_manager
  - frog
  - slug
  - diamond
  - chest
  - fuori_mondo
  - scala
  - scala_cima
  layers:
  - Default
  - TransparentFX
  - Ignore Raycast
  - 
  - Water
  - UI
  - 
  - 
  - Terreno
  - 
  - 
  - 
  - 
  - 
  - 
  - 
  - 
  - 
  - 
  - 
  - 
  - 
  - 
  - 
  - 
  - 
  - 
  - 
  - 
  - 
  - 
  - 
  m_SortingLayers:
  - name: Default
    uniqueID: 0
    locked: 0
